…
## Cleaning data

We start by reading in the data and calculating summary statistics. We
already know *Death* is a categorical variable so we force it to a
factor, along with all categorical variables.

``` r
raw_data <- read_csv('simulated_data.csv') %>%
  mutate(Death = factor(Death, labels=c("survived", "died"))) %>%
  mutate_if(is.character, as.factor)

raw_data
```

    ## # A tibble: 300 x 6
    ##       ID Organisation   Age   LOS Death    Category
    ##    <dbl> <fct>        <dbl> <dbl> <fct>    <fct>   
    ##  1     1 Trust1          55     2 survived Low     
    ##  2     2 Trust2          27     1 survived Low     
    ##  3     3 Trust3          93    12 survived High    
    ##  4     4 Trust4          45     3 died     Low     
    ##  5     5 Trust5          70    11 survived High    
    ##  6     6 Trust6          60     7 survived Moderate
    ##  7     7 Trust7          25     4 survived Moderate
    ##  8     8 Trust8          48     4 survived Low     
    ##  9     9 Trust9          51     7 died     Low     
    ## 10    10 Trust10         81     1 survived High    
    ## # … with 290 more rows
…
